%YAML 1.1
%TAG !u! tag:unity3d.com,2011:
--- !u!1 &1505237212886384835
GameObject:
  m_ObjectHideFlags: 0
  m_CorrespondingSourceObject: {fileID: 0}
  m_PrefabInstance: {fileID: 0}
  m_PrefabAsset: {fileID: 0}
  serializedVersion: 6
  m_Component:
  - component: {fileID: 6209593330773942433}
  - component: {fileID: 138043051213879626}
  - component: {fileID: 5083458508904992140}
  m_Layer: 0
  m_Name: Layer1
  m_TagString: Untagged
  m_Icon: {fileID: 0}
  m_NavMeshLayer: 0
  m_StaticEditorFlags: 0
  m_IsActive: 1
--- !u!4 &6209593330773942433
Transform:
  m_ObjectHideFlags: 0
  m_CorrespondingSourceObject: {fileID: 0}
  m_PrefabInstance: {fileID: 0}
  m_PrefabAsset: {fileID: 0}
  m_GameObject: {fileID: 1505237212886384835}
  serializedVersion: 2
  m_LocalRotation: {x: -0, y: -0, z: -0, w: 1}
  m_LocalPosition: {x: 0, y: 0, z: 0}
  m_LocalScale: {x: 1, y: 1, z: 1}
  m_ConstrainProportionsScale: 0
  m_Children: []
  m_Father: {fileID: 8466038663716680296}
  m_LocalEulerAnglesHint: {x: 0, y: 0, z: 0}
--- !u!1839735485 &138043051213879626
Tilemap:
  m_ObjectHideFlags: 0
  m_CorrespondingSourceObject: {fileID: 0}
  m_PrefabInstance: {fileID: 0}
  m_PrefabAsset: {fileID: 0}
  m_GameObject: {fileID: 1505237212886384835}
  m_Enabled: 1
  m_Tiles:
  - first: {x: -1, y: -7, z: 0}
    second:
      serializedVersion: 2
      m_TileIndex: 79
      m_TileSpriteIndex: 79
      m_TileMatrixIndex: 0
      m_TileColorIndex: 0
      m_TileObjectToInstantiateIndex: 65535
      dummyAlignment: 0
      m_AllTileFlags: 1073741825
  - first: {x: 0, y: -7, z: 0}
    second:
      serializedVersion: 2
      m_TileIndex: 80
      m_TileSpriteIndex: 80
      m_TileMatrixIndex: 0
      m_TileColorIndex: 0
      m_TileObjectToInstantiateIndex: 65535
      dummyAlignment: 0
      m_AllTileFlags: 1073741825
  - first: {x: 1, y: -7, z: 0}
    second:
      serializedVersion: 2
      m_TileIndex: 81
      m_TileSpriteIndex: 81
      m_TileMatrixIndex: 0
      m_TileColorIndex: 0
      m_TileObjectToInstantiateIndex: 65535
      dummyAlignment: 0
      m_AllTileFlags: 1073741825
  - first: {x: 2, y: -7, z: 0}
    second:
      serializedVersion: 2
      m_TileIndex: 82
      m_TileSpriteIndex: 82
      m_TileMatrixIndex: 0
      m_TileColorIndex: 0
      m_TileObjectToInstantiateIndex: 65535
      dummyAlignment: 0
      m_AllTileFlags: 1073741825
  - first: {x: 3, y: -7, z: 0}
    second:
      serializedVersion: 2
      m_TileIndex: 83
      m_TileSpriteIndex: 83
      m_TileMatrixIndex: 0
      m_TileColorIndex: 0
      m_TileObjectToInstantiateIndex: 65535
      dummyAlignment: 0
      m_AllTileFlags: 1073741825
  - first: {x: 4, y: -7, z: 0}
    second:
      serializedVersion: 2
      m_TileIndex: 84
      m_TileSpriteIndex: 84
      m_TileMatrixIndex: 0
      m_TileColorIndex: 0
      m_TileObjectToInstantiateIndex: 65535
      dummyAlignment: 0
      m_AllTileFlags: 1073741825
  - first: {x: 5, y: -7, z: 0}
    second:
      serializedVersion: 2
      m_TileIndex: 85
      m_TileSpriteIndex: 85
      m_TileMatrixIndex: 0
      m_TileColorIndex: 0
      m_TileObjectToInstantiateIndex: 65535
      dummyAlignment: 0
      m_AllTileFlags: 1073741825
  - first: {x: 6, y: -7, z: 0}
    second:
      serializedVersion: 2
      m_TileIndex: 86
      m_TileSpriteIndex: 86
      m_TileMatrixIndex: 0
      m_TileColorIndex: 0
      m_TileObjectToInstantiateIndex: 65535
      dummyAlignment: 0
      m_AllTileFlags: 1073741825
  - first: {x: 7, y: -7, z: 0}
    second:
      serializedVersion: 2
      m_TileIndex: 87
      m_TileSpriteIndex: 87
      m_TileMatrixIndex: 0
      m_TileColorIndex: 0
      m_TileObjectToInstantiateIndex: 65535
      dummyAlignment: 0
      m_AllTileFlags: 1073741825
  - first: {x: 8, y: -7, z: 0}
    second:
      serializedVersion: 2
      m_TileIndex: 88
      m_TileSpriteIndex: 88
      m_TileMatrixIndex: 0
      m_TileColorIndex: 0
      m_TileObjectToInstantiateIndex: 65535
      dummyAlignment: 0
      m_AllTileFlags: 1073741825
  - first: {x: 9, y: -7, z: 0}
    second:
      serializedVersion: 2
      m_TileIndex: 89
      m_TileSpriteIndex: 89
      m_TileMatrixIndex: 0
      m_TileColorIndex: 0
      m_TileObjectToInstantiateIndex: 65535
      dummyAlignment: 0
      m_AllTileFlags: 1073741825
  - first: {x: 10, y: -7, z: 0}
    second:
      serializedVersion: 2
      m_TileIndex: 90
      m_TileSpriteIndex: 90
      m_TileMatrixIndex: 0
      m_TileColorIndex: 0
      m_TileObjectToInstantiateIndex: 65535
      dummyAlignment: 0
      m_AllTileFlags: 1073741825
  - first: {x: -1, y: -6, z: 0}
    second:
      serializedVersion: 2
      m_TileIndex: 67
      m_TileSpriteIndex: 67
      m_TileMatrixIndex: 0
      m_TileColorIndex: 0
      m_TileObjectToInstantiateIndex: 65535
      dummyAlignment: 0
      m_AllTileFlags: 1073741825
  - first: {x: 0, y: -6, z: 0}
    second:
      serializedVersion: 2
      m_TileIndex: 68
      m_TileSpriteIndex: 68
      m_TileMatrixIndex: 0
      m_TileColorIndex: 0
      m_TileObjectToInstantiateIndex: 65535
      dummyAlignment: 0
      m_AllTileFlags: 1073741825
  - first: {x: 1, y: -6, z: 0}
    second:
      serializedVersion: 2
      m_TileIndex: 69
      m_TileSpriteIndex: 69
      m_TileMatrixIndex: 0
      m_TileColorIndex: 0
      m_TileObjectToInstantiateIndex: 65535
      dummyAlignment: 0
      m_AllTileFlags: 1073741825
  - first: {x: 2, y: -6, z: 0}
    second:
      serializedVersion: 2
      m_TileIndex: 70
      m_TileSpriteIndex: 70
      m_TileMatrixIndex: 0
      m_TileColorIndex: 0
      m_TileObjectToInstantiateIndex: 65535
      dummyAlignment: 0
      m_AllTileFlags: 1073741825
  - first: {x: 3, y: -6, z: 0}
    second:
      serializedVersion: 2
      m_TileIndex: 71
      m_TileSpriteIndex: 71
      m_TileMatrixIndex: 0
      m_TileColorIndex: 0
      m_TileObjectToInstantiateIndex: 65535
      dummyAlignment: 0
      m_AllTileFlags: 1073741825
  - first: {x: 4, y: -6, z: 0}
    second:
      serializedVersion: 2
      m_TileIndex: 72
      m_TileSpriteIndex: 72
      m_TileMatrixIndex: 0
      m_TileColorIndex: 0
      m_TileObjectToInstantiateIndex: 65535
      dummyAlignment: 0
      m_AllTileFlags: 1073741825
  - first: {x: 5, y: -6, z: 0}
    second:
      serializedVersion: 2
      m_TileIndex: 73
      m_TileSpriteIndex: 73
      m_TileMatrixIndex: 0
      m_TileColorIndex: 0
      m_TileObjectToInstantiateIndex: 65535
      dummyAlignment: 0
      m_AllTileFlags: 1073741825
  - first: {x: 6, y: -6, z: 0}
    second:
      serializedVersion: 2
      m_TileIndex: 74
      m_TileSpriteIndex: 74
      m_TileMatrixIndex: 0
      m_TileColorIndex: 0
      m_TileObjectToInstantiateIndex: 65535
      dummyAlignment: 0
      m_AllTileFlags: 1073741825
  - first: {x: 7, y: -6, z: 0}
    second:
      serializedVersion: 2
      m_TileIndex: 75
      m_TileSpriteIndex: 75
      m_TileMatrixIndex: 0
      m_TileColorIndex: 0
      m_TileObjectToInstantiateIndex: 65535
      dummyAlignment: 0
      m_AllTileFlags: 1073741825
  - first: {x: 8, y: -6, z: 0}
    second:
      serializedVersion: 2
      m_TileIndex: 76
      m_TileSpriteIndex: 76
      m_TileMatrixIndex: 0
      m_TileColorIndex: 0
      m_TileObjectToInstantiateIndex: 65535
      dummyAlignment: 0
      m_AllTileFlags: 1073741825
  - first: {x: 9, y: -6, z: 0}
    second:
      serializedVersion: 2
      m_TileIndex: 77
      m_TileSpriteIndex: 77
      m_TileMatrixIndex: 0
      m_TileColorIndex: 0
      m_TileObjectToInstantiateIndex: 65535
      dummyAlignment: 0
      m_AllTileFlags: 1073741825
  - first: {x: 10, y: -6, z: 0}
    second:
      serializedVersion: 2
      m_TileIndex: 78
      m_TileSpriteIndex: 78
      m_TileMatrixIndex: 0
      m_TileColorIndex: 0
      m_TileObjectToInstantiateIndex: 65535
      dummyAlignment: 0
      m_AllTileFlags: 1073741825
  - first: {x: -1, y: -5, z: 0}
    second:
      serializedVersion: 2
      m_TileIndex: 55
      m_TileSpriteIndex: 55
      m_TileMatrixIndex: 0
      m_TileColorIndex: 0
      m_TileObjectToInstantiateIndex: 65535
      dummyAlignment: 0
      m_AllTileFlags: 1073741825
  - first: {x: 0, y: -5, z: 0}
    second:
      serializedVersion: 2
      m_TileIndex: 56
      m_TileSpriteIndex: 56
      m_TileMatrixIndex: 0
      m_TileColorIndex: 0
      m_TileObjectToInstantiateIndex: 65535
      dummyAlignment: 0
      m_AllTileFlags: 1073741825
  - first: {x: 1, y: -5, z: 0}
    second:
      serializedVersion: 2
      m_TileIndex: 57
      m_TileSpriteIndex: 57
      m_TileMatrixIndex: 0
      m_TileColorIndex: 0
      m_TileObjectToInstantiateIndex: 65535
      dummyAlignment: 0
      m_AllTileFlags: 1073741825
  - first: {x: 2, y: -5, z: 0}
    second:
      serializedVersion: 2
      m_TileIndex: 58
      m_TileSpriteIndex: 58
      m_TileMatrixIndex: 0
      m_TileColorIndex: 0
      m_TileObjectToInstantiateIndex: 65535
      dummyAlignment: 0
      m_AllTileFlags: 1073741825
  - first: {x: 3, y: -5, z: 0}
    second:
      serializedVersion: 2
      m_TileIndex: 59
      m_TileSpriteIndex: 59
      m_TileMatrixIndex: 0
      m_TileColorIndex: 0
      m_TileObjectToInstantiateIndex: 65535
      dummyAlignment: 0
      m_AllTileFlags: 1073741825
  - first: {x: 4, y: -5, z: 0}
    second:
      serializedVersion: 2
      m_TileIndex: 60
      m_TileSpriteIndex: 60
      m_TileMatrixIndex: 0
      m_TileColorIndex: 0
      m_TileObjectToInstantiateIndex: 65535
      dummyAlignment: 0
      m_AllTileFlags: 1073741825
  - first: {x: 5, y: -5, z: 0}
    second:
      serializedVersion: 2
      m_TileIndex: 61
      m_TileSpriteIndex: 61
      m_TileMatrixIndex: 0
      m_TileColorIndex: 0
      m_TileObjectToInstantiateIndex: 65535
      dummyAlignment: 0
      m_AllTileFlags: 1073741825
  - first: {x: 6, y: -5, z: 0}
    second:
      serializedVersion: 2
      m_TileIndex: 62
      m_TileSpriteIndex: 62
      m_TileMatrixIndex: 0
      m_TileColorIndex: 0
      m_TileObjectToInstantiateIndex: 65535
      dummyAlignment: 0
      m_AllTileFlags: 1073741825
  - first: {x: 7, y: -5, z: 0}
    second:
      serializedVersion: 2
      m_TileIndex: 63
      m_TileSpriteIndex: 63
      m_TileMatrixIndex: 0
      m_TileColorIndex: 0
      m_TileObjectToInstantiateIndex: 65535
      dummyAlignment: 0
      m_AllTileFlags: 1073741825
  - first: {x: 8, y: -5, z: 0}
    second:
      serializedVersion: 2
      m_TileIndex: 64
      m_TileSpriteIndex: 64
      m_TileMatrixIndex: 0
      m_TileColorIndex: 0
      m_TileObjectToInstantiateIndex: 65535
      dummyAlignment: 0
      m_AllTileFlags: 1073741825
  - first: {x: 9, y: -5, z: 0}
    second:
      serializedVersion: 2
      m_TileIndex: 65
      m_TileSpriteIndex: 65
      m_TileMatrixIndex: 0
      m_TileColorIndex: 0
      m_TileObjectToInstantiateIndex: 65535
      dummyAlignment: 0
      m_AllTileFlags: 1073741825
  - first: {x: 10, y: -5, z: 0}
    second:
      serializedVersion: 2
      m_TileIndex: 66
      m_TileSpriteIndex: 66
      m_TileMatrixIndex: 0
      m_TileColorIndex: 0
      m_TileObjectToInstantiateIndex: 65535
      dummyAlignment: 0
      m_AllTileFlags: 1073741825
  - first: {x: -1, y: -4, z: 0}
    second:
      serializedVersion: 2
      m_TileIndex: 44
      m_TileSpriteIndex: 44
      m_TileMatrixIndex: 0
      m_TileColorIndex: 0
      m_TileObjectToInstantiateIndex: 65535
      dummyAlignment: 0
      m_AllTileFlags: 1073741825
  - first: {x: 0, y: -4, z: 0}
    second:
      serializedVersion: 2
      m_TileIndex: 45
      m_TileSpriteIndex: 45
      m_TileMatrixIndex: 0
      m_TileColorIndex: 0
      m_TileObjectToInstantiateIndex: 65535
      dummyAlignment: 0
      m_AllTileFlags: 1073741825
  - first: {x: 1, y: -4, z: 0}
    second:
      serializedVersion: 2
      m_TileIndex: 46
      m_TileSpriteIndex: 46
      m_TileMatrixIndex: 0
      m_TileColorIndex: 0
      m_TileObjectToInstantiateIndex: 65535
      dummyAlignment: 0
      m_AllTileFlags: 1073741825
  - first: {x: 2, y: -4, z: 0}
    second:
      serializedVersion: 2
      m_TileIndex: 47
      m_TileSpriteIndex: 47
      m_TileMatrixIndex: 0
      m_TileColorIndex: 0
      m_TileObjectToInstantiateIndex: 65535
      dummyAlignment: 0
      m_AllTileFlags: 1073741825
  - first: {x: 3, y: -4, z: 0}
    second:
      serializedVersion: 2
      m_TileIndex: 48
      m_TileSpriteIndex: 48
      m_TileMatrixIndex: 0
      m_TileColorIndex: 0
      m_TileObjectToInstantiateIndex: 65535
      dummyAlignment: 0
      m_AllTileFlags: 1073741825
  - first: {x: 4, y: -4, z: 0}
    second:
      serializedVersion: 2
      m_TileIndex: 49
      m_TileSpriteIndex: 49
      m_TileMatrixIndex: 0
      m_TileColorIndex: 0
      m_TileObjectToInstantiateIndex: 65535
      dummyAlignment: 0
      m_AllTileFlags: 1073741825
  - first: {x: 5, y: -4, z: 0}
    second:
      serializedVersion: 2
      m_TileIndex: 50
      m_TileSpriteIndex: 50
      m_TileMatrixIndex: 0
      m_TileColorIndex: 0
      m_TileObjectToInstantiateIndex: 65535
      dummyAlignment: 0
      m_AllTileFlags: 1073741825
  - first: {x: 6, y: -4, z: 0}
    second:
      serializedVersion: 2
      m_TileIndex: 51
      m_TileSpriteIndex: 51
      m_TileMatrixIndex: 0
      m_TileColorIndex: 0
      m_TileObjectToInstantiateIndex: 65535
      dummyAlignment: 0
      m_AllTileFlags: 1073741825
  - first: {x: 7, y: -4, z: 0}
    second:
      serializedVersion: 2
      m_TileIndex: 52
      m_TileSpriteIndex: 52
      m_TileMatrixIndex: 0
      m_TileColorIndex: 0
      m_TileObjectToInstantiateIndex: 65535
      dummyAlignment: 0
      m_AllTileFlags: 1073741825
  - first: {x: 8, y: -4, z: 0}
    second:
      serializedVersion: 2
      m_TileIndex: 53
      m_TileSpriteIndex: 53
      m_TileMatrixIndex: 0
      m_TileColorIndex: 0
      m_TileObjectToInstantiateIndex: 65535
      dummyAlignment: 0
      m_AllTileFlags: 1073741825
  - first: {x: 9, y: -4, z: 0}
    second:
      serializedVersion: 2
      m_TileIndex: 54
      m_TileSpriteIndex: 54
      m_TileMatrixIndex: 0
      m_TileColorIndex: 0
      m_TileObjectToInstantiateIndex: 65535
      dummyAlignment: 0
      m_AllTileFlags: 1073741825
  - first: {x: -1, y: -3, z: 0}
    second:
      serializedVersion: 2
      m_TileIndex: 31
      m_TileSpriteIndex: 31
      m_TileMatrixIndex: 0
      m_TileColorIndex: 0
      m_TileObjectToInstantiateIndex: 65535
      dummyAlignment: 0
      m_AllTileFlags: 1073741825
  - first: {x: 0, y: -3, z: 0}
    second:
      serializedVersion: 2
      m_TileIndex: 32
      m_TileSpriteIndex: 32
      m_TileMatrixIndex: 0
      m_TileColorIndex: 0
      m_TileObjectToInstantiateIndex: 65535
      dummyAlignment: 0
      m_AllTileFlags: 1073741825
  - first: {x: 1, y: -3, z: 0}
    second:
      serializedVersion: 2
      m_TileIndex: 33
      m_TileSpriteIndex: 33
      m_TileMatrixIndex: 0
      m_TileColorIndex: 0
      m_TileObjectToInstantiateIndex: 65535
      dummyAlignment: 0
      m_AllTileFlags: 1073741825
  - first: {x: 2, y: -3, z: 0}
    second:
      serializedVersion: 2
      m_TileIndex: 34
      m_TileSpriteIndex: 34
      m_TileMatrixIndex: 0
      m_TileColorIndex: 0
      m_TileObjectToInstantiateIndex: 65535
      dummyAlignment: 0
      m_AllTileFlags: 1073741825
  - first: {x: 3, y: -3, z: 0}
    second:
      serializedVersion: 2
      m_TileIndex: 35
      m_TileSpriteIndex: 35
      m_TileMatrixIndex: 0
      m_TileColorIndex: 0
      m_TileObjectToInstantiateIndex: 65535
      dummyAlignment: 0
      m_AllTileFlags: 1073741825
  - first: {x: 4, y: -3, z: 0}
    second:
      serializedVersion: 2
      m_TileIndex: 36
      m_TileSpriteIndex: 36
      m_TileMatrixIndex: 0
      m_TileColorIndex: 0
      m_TileObjectToInstantiateIndex: 65535
      dummyAlignment: 0
      m_AllTileFlags: 1073741825
  - first: {x: 5, y: -3, z: 0}
    second:
      serializedVersion: 2
      m_TileIndex: 37
      m_TileSpriteIndex: 37
      m_TileMatrixIndex: 0
      m_TileColorIndex: 0
      m_TileObjectToInstantiateIndex: 65535
      dummyAlignment: 0
      m_AllTileFlags: 1073741825
  - first: {x: 6, y: -3, z: 0}
    second:
      serializedVersion: 2
      m_TileIndex: 38
      m_TileSpriteIndex: 38
      m_TileMatrixIndex: 0
      m_TileColorIndex: 0
      m_TileObjectToInstantiateIndex: 65535
      dummyAlignment: 0
      m_AllTileFlags: 1073741825
  - first: {x: 7, y: -3, z: 0}
    second:
      serializedVersion: 2
      m_TileIndex: 39
      m_TileSpriteIndex: 39
      m_TileMatrixIndex: 0
      m_TileColorIndex: 0
      m_TileObjectToInstantiateIndex: 65535
      dummyAlignment: 0
      m_AllTileFlags: 1073741825
  - first: {x: 8, y: -3, z: 0}
    second:
      serializedVersion: 2
      m_TileIndex: 40
      m_TileSpriteIndex: 40
      m_TileMatrixIndex: 0
      m_TileColorIndex: 0
      m_TileObjectToInstantiateIndex: 65535
      dummyAlignment: 0
      m_AllTileFlags: 1073741825
  - first: {x: 9, y: -3, z: 0}
    second:
      serializedVersion: 2
      m_TileIndex: 41
      m_TileSpriteIndex: 41
      m_TileMatrixIndex: 0
      m_TileColorIndex: 0
      m_TileObjectToInstantiateIndex: 65535
      dummyAlignment: 0
      m_AllTileFlags: 1073741825
  - first: {x: 10, y: -3, z: 0}
    second:
      serializedVersion: 2
      m_TileIndex: 42
      m_TileSpriteIndex: 42
      m_TileMatrixIndex: 0
      m_TileColorIndex: 0
      m_TileObjectToInstantiateIndex: 65535
      dummyAlignment: 0
      m_AllTileFlags: 1073741825
  - first: {x: 11, y: -3, z: 0}
    second:
      serializedVersion: 2
      m_TileIndex: 43
      m_TileSpriteIndex: 43
      m_TileMatrixIndex: 0
      m_TileColorIndex: 0
      m_TileObjectToInstantiateIndex: 65535
      dummyAlignment: 0
      m_AllTileFlags: 1073741825
  - first: {x: -1, y: -2, z: 0}
    second:
      serializedVersion: 2
      m_TileIndex: 18
      m_TileSpriteIndex: 18
      m_TileMatrixIndex: 0
      m_TileColorIndex: 0
      m_TileObjectToInstantiateIndex: 65535
      dummyAlignment: 0
      m_AllTileFlags: 1073741825
  - first: {x: 0, y: -2, z: 0}
    second:
      serializedVersion: 2
      m_TileIndex: 19
      m_TileSpriteIndex: 19
      m_TileMatrixIndex: 0
      m_TileColorIndex: 0
      m_TileObjectToInstantiateIndex: 65535
      dummyAlignment: 0
      m_AllTileFlags: 1073741825
  - first: {x: 1, y: -2, z: 0}
    second:
      serializedVersion: 2
      m_TileIndex: 20
      m_TileSpriteIndex: 20
      m_TileMatrixIndex: 0
      m_TileColorIndex: 0
      m_TileObjectToInstantiateIndex: 65535
      dummyAlignment: 0
      m_AllTileFlags: 1073741825
  - first: {x: 2, y: -2, z: 0}
    second:
      serializedVersion: 2
      m_TileIndex: 21
      m_TileSpriteIndex: 21
      m_TileMatrixIndex: 0
      m_TileColorIndex: 0
      m_TileObjectToInstantiateIndex: 65535
      dummyAlignment: 0
      m_AllTileFlags: 1073741825
  - first: {x: 3, y: -2, z: 0}
    second:
      serializedVersion: 2
      m_TileIndex: 22
      m_TileSpriteIndex: 22
      m_TileMatrixIndex: 0
      m_TileColorIndex: 0
      m_TileObjectToInstantiateIndex: 65535
      dummyAlignment: 0
      m_AllTileFlags: 1073741825
  - first: {x: 4, y: -2, z: 0}
    second:
      serializedVersion: 2
      m_TileIndex: 23
      m_TileSpriteIndex: 23
      m_TileMatrixIndex: 0
      m_TileColorIndex: 0
      m_TileObjectToInstantiateIndex: 65535
      dummyAlignment: 0
      m_AllTileFlags: 1073741825
  - first: {x: 5, y: -2, z: 0}
    second:
      serializedVersion: 2
      m_TileIndex: 24
      m_TileSpriteIndex: 24
      m_TileMatrixIndex: 0
      m_TileColorIndex: 0
      m_TileObjectToInstantiateIndex: 65535
      dummyAlignment: 0
      m_AllTileFlags: 1073741825
  - first: {x: 6, y: -2, z: 0}
    second:
      serializedVersion: 2
      m_TileIndex: 25
      m_TileSpriteIndex: 25
      m_TileMatrixIndex: 0
      m_TileColorIndex: 0
      m_TileObjectToInstantiateIndex: 65535
      dummyAlignment: 0
      m_AllTileFlags: 1073741825
  - first: {x: 7, y: -2, z: 0}
    second:
      serializedVersion: 2
      m_TileIndex: 26
      m_TileSpriteIndex: 26
      m_TileMatrixIndex: 0
      m_TileColorIndex: 0
      m_TileObjectToInstantiateIndex: 65535
      dummyAlignment: 0
      m_AllTileFlags: 1073741825
  - first: {x: 8, y: -2, z: 0}
    second:
      serializedVersion: 2
      m_TileIndex: 27
      m_TileSpriteIndex: 27
      m_TileMatrixIndex: 0
      m_TileColorIndex: 0
      m_TileObjectToInstantiateIndex: 65535
      dummyAlignment: 0
      m_AllTileFlags: 1073741825
  - first: {x: 9, y: -2, z: 0}
    second:
      serializedVersion: 2
      m_TileIndex: 28
      m_TileSpriteIndex: 28
      m_TileMatrixIndex: 0
      m_TileColorIndex: 0
      m_TileObjectToInstantiateIndex: 65535
      dummyAlignment: 0
      m_AllTileFlags: 1073741825
  - first: {x: 10, y: -2, z: 0}
    second:
      serializedVersion: 2
      m_TileIndex: 29
      m_TileSpriteIndex: 29
      m_TileMatrixIndex: 0
      m_TileColorIndex: 0
      m_TileObjectToInstantiateIndex: 65535
      dummyAlignment: 0
      m_AllTileFlags: 1073741825
  - first: {x: 11, y: -2, z: 0}
    second:
      serializedVersion: 2
      m_TileIndex: 30
      m_TileSpriteIndex: 30
      m_TileMatrixIndex: 0
      m_TileColorIndex: 0
      m_TileObjectToInstantiateIndex: 65535
      dummyAlignment: 0
      m_AllTileFlags: 1073741825
  - first: {x: -1, y: -1, z: 0}
    second:
      serializedVersion: 2
      m_TileIndex: 6
      m_TileSpriteIndex: 6
      m_TileMatrixIndex: 0
      m_TileColorIndex: 0
      m_TileObjectToInstantiateIndex: 65535
      dummyAlignment: 0
      m_AllTileFlags: 1073741825
  - first: {x: 0, y: -1, z: 0}
    second:
      serializedVersion: 2
      m_TileIndex: 7
      m_TileSpriteIndex: 7
      m_TileMatrixIndex: 0
      m_TileColorIndex: 0
      m_TileObjectToInstantiateIndex: 65535
      dummyAlignment: 0
      m_AllTileFlags: 1073741825
  - first: {x: 1, y: -1, z: 0}
    second:
      serializedVersion: 2
      m_TileIndex: 8
      m_TileSpriteIndex: 8
      m_TileMatrixIndex: 0
      m_TileColorIndex: 0
      m_TileObjectToInstantiateIndex: 65535
      dummyAlignment: 0
      m_AllTileFlags: 1073741825
  - first: {x: 2, y: -1, z: 0}
    second:
      serializedVersion: 2
      m_TileIndex: 9
      m_TileSpriteIndex: 9
      m_TileMatrixIndex: 0
      m_TileColorIndex: 0
      m_TileObjectToInstantiateIndex: 65535
      dummyAlignment: 0
      m_AllTileFlags: 1073741825
  - first: {x: 3, y: -1, z: 0}
    second:
      serializedVersion: 2
      m_TileIndex: 10
      m_TileSpriteIndex: 10
      m_TileMatrixIndex: 0
      m_TileColorIndex: 0
      m_TileObjectToInstantiateIndex: 65535
      dummyAlignment: 0
      m_AllTileFlags: 1073741825
  - first: {x: 4, y: -1, z: 0}
    second:
      serializedVersion: 2
      m_TileIndex: 11
      m_TileSpriteIndex: 11
      m_TileMatrixIndex: 0
      m_TileColorIndex: 0
      m_TileObjectToInstantiateIndex: 65535
      dummyAlignment: 0
      m_AllTileFlags: 1073741825
  - first: {x: 5, y: -1, z: 0}
    second:
      serializedVersion: 2
      m_TileIndex: 12
      m_TileSpriteIndex: 12
      m_TileMatrixIndex: 0
      m_TileColorIndex: 0
      m_TileObjectToInstantiateIndex: 65535
      dummyAlignment: 0
      m_AllTileFlags: 1073741825
  - first: {x: 6, y: -1, z: 0}
    second:
      serializedVersion: 2
      m_TileIndex: 13
      m_TileSpriteIndex: 13
      m_TileMatrixIndex: 0
      m_TileColorIndex: 0
      m_TileObjectToInstantiateIndex: 65535
      dummyAlignment: 0
      m_AllTileFlags: 1073741825
  - first: {x: 7, y: -1, z: 0}
    second:
      serializedVersion: 2
      m_TileIndex: 14
      m_TileSpriteIndex: 14
      m_TileMatrixIndex: 0
      m_TileColorIndex: 0
      m_TileObjectToInstantiateIndex: 65535
      dummyAlignment: 0
      m_AllTileFlags: 1073741825
  - first: {x: 8, y: -1, z: 0}
    second:
      serializedVersion: 2
      m_TileIndex: 15
      m_TileSpriteIndex: 15
      m_TileMatrixIndex: 0
      m_TileColorIndex: 0
      m_TileObjectToInstantiateIndex: 65535
      dummyAlignment: 0
      m_AllTileFlags: 1073741825
  - first: {x: 9, y: -1, z: 0}
    second:
      serializedVersion: 2
      m_TileIndex: 16
      m_TileSpriteIndex: 16
      m_TileMatrixIndex: 0
      m_TileColorIndex: 0
      m_TileObjectToInstantiateIndex: 65535
      dummyAlignment: 0
      m_AllTileFlags: 1073741825
  - first: {x: 10, y: -1, z: 0}
    second:
      serializedVersion: 2
      m_TileIndex: 17
      m_TileSpriteIndex: 17
      m_TileMatrixIndex: 0
      m_TileColorIndex: 0
      m_TileObjectToInstantiateIndex: 65535
      dummyAlignment: 0
      m_AllTileFlags: 1073741825
  - first: {x: -1, y: 0, z: 0}
    second:
      serializedVersion: 2
      m_TileIndex: 0
      m_TileSpriteIndex: 0
      m_TileMatrixIndex: 0
      m_TileColorIndex: 0
      m_TileObjectToInstantiateIndex: 65535
      dummyAlignment: 0
      m_AllTileFlags: 1073741825
  - first: {x: 0, y: 0, z: 0}
    second:
      serializedVersion: 2
      m_TileIndex: 1
      m_TileSpriteIndex: 1
      m_TileMatrixIndex: 0
      m_TileColorIndex: 0
      m_TileObjectToInstantiateIndex: 65535
      dummyAlignment: 0
      m_AllTileFlags: 1073741825
  - first: {x: 1, y: 0, z: 0}
    second:
      serializedVersion: 2
      m_TileIndex: 2
      m_TileSpriteIndex: 2
      m_TileMatrixIndex: 0
      m_TileColorIndex: 0
      m_TileObjectToInstantiateIndex: 65535
      dummyAlignment: 0
      m_AllTileFlags: 1073741825
  - first: {x: 2, y: 0, z: 0}
    second:
      serializedVersion: 2
      m_TileIndex: 3
      m_TileSpriteIndex: 3
      m_TileMatrixIndex: 0
      m_TileColorIndex: 0
      m_TileObjectToInstantiateIndex: 65535
      dummyAlignment: 0
      m_AllTileFlags: 1073741825
  - first: {x: 3, y: 0, z: 0}
    second:
      serializedVersion: 2
      m_TileIndex: 4
      m_TileSpriteIndex: 4
      m_TileMatrixIndex: 0
      m_TileColorIndex: 0
      m_TileObjectToInstantiateIndex: 65535
      dummyAlignment: 0
      m_AllTileFlags: 1073741825
  - first: {x: 4, y: 0, z: 0}
    second:
      serializedVersion: 2
      m_TileIndex: 5
      m_TileSpriteIndex: 5
      m_TileMatrixIndex: 0
      m_TileColorIndex: 0
      m_TileObjectToInstantiateIndex: 65535
      dummyAlignment: 0
      m_AllTileFlags: 1073741825
  m_AnimatedTiles: {}
  m_TileAssetArray:
  - m_RefCount: 1
    m_Data: {fileID: 11400000, guid: 01c69c7b3b7b792468f9cbbea0ce960f, type: 2}
  - m_RefCount: 1
    m_Data: {fileID: 11400000, guid: ede70a88baf743040900ad60dbff07da, type: 2}
  - m_RefCount: 1
    m_Data: {fileID: 11400000, guid: d5af3591c90edf14b8ea4ef0e6ba5132, type: 2}
  - m_RefCount: 1
    m_Data: {fileID: 11400000, guid: 033c45b0f0aca1248b9cb1a60b97251c, type: 2}
  - m_RefCount: 1
    m_Data: {fileID: 11400000, guid: 840f54d67ad139143972dc301dad59ee, type: 2}
  - m_RefCount: 1
    m_Data: {fileID: 11400000, guid: 250e0d10161ba044eadd5440ca0a577f, type: 2}
  - m_RefCount: 1
    m_Data: {fileID: 11400000, guid: 6c1d58b8b9b8e8a44831ebe5f80a98f3, type: 2}
  - m_RefCount: 1
    m_Data: {fileID: 11400000, guid: bb7f36c704614d84aa8d2703e220ec1a, type: 2}
  - m_RefCount: 1
    m_Data: {fileID: 11400000, guid: 08ae5980c6ab5664781bed88e0f49677, type: 2}
  - m_RefCount: 1
    m_Data: {fileID: 11400000, guid: 6042ce76a60dd0e40bd9e24edb8bf305, type: 2}
  - m_RefCount: 1
    m_Data: {fileID: 11400000, guid: 78d54cb82d223d84aa0238078263a67b, type: 2}
  - m_RefCount: 1
    m_Data: {fileID: 11400000, guid: 39e9ee52e31d2af41b346157f8d5a332, type: 2}
  - m_RefCount: 1
    m_Data: {fileID: 11400000, guid: d7ed51a88e9c0dc43bd1b3b1798bd6bc, type: 2}
  - m_RefCount: 1
    m_Data: {fileID: 11400000, guid: 7a0181e15eb24d947949249d9712f4b4, type: 2}
  - m_RefCount: 1
    m_Data: {fileID: 11400000, guid: 648637ba70c3ab44d85b0cd33c4af72f, type: 2}
  - m_RefCount: 1
    m_Data: {fileID: 11400000, guid: 2c9c6b821c940bc41bb85b58ca3dd766, type: 2}
  - m_RefCount: 1
    m_Data: {fileID: 11400000, guid: aaa578c4e1db11b4dafd5eff95d4962f, type: 2}
  - m_RefCount: 1
    m_Data: {fileID: 11400000, guid: 4b19b7aed05ec484ca96e2dfcaa8e9d4, type: 2}
  - m_RefCount: 1
    m_Data: {fileID: 11400000, guid: 72acd076a6ba34342b8c8479f97d5055, type: 2}
  - m_RefCount: 1
    m_Data: {fileID: 11400000, guid: eca4191ea40ce0e479df935926ae7401, type: 2}
  - m_RefCount: 1
    m_Data: {fileID: 11400000, guid: 6693c57aca5de214fafed3dc69c4a4cb, type: 2}
  - m_RefCount: 1
    m_Data: {fileID: 11400000, guid: db49d5529953f1c449a6acd9845a5667, type: 2}
  - m_RefCount: 1
    m_Data: {fileID: 11400000, guid: 55fed3f60d8206748b70b1e3ea5a9bba, type: 2}
  - m_RefCount: 1
    m_Data: {fileID: 11400000, guid: fdde8cd1dfb32754dadd8a521534705b, type: 2}
  - m_RefCount: 1
    m_Data: {fileID: 11400000, guid: 16b5f54de6c66b047bbde39595b562c0, type: 2}
  - m_RefCount: 1
    m_Data: {fileID: 11400000, guid: da7b3ff368c4f45498c1797d9e4f0daf, type: 2}
  - m_RefCount: 1
    m_Data: {fileID: 11400000, guid: 7e4cf7f341b955f45bc9445a0e91d7e1, type: 2}
  - m_RefCount: 1
    m_Data: {fileID: 11400000, guid: b32f9cf47f1679f47b8869235720ae21, type: 2}
  - m_RefCount: 1
    m_Data: {fileID: 11400000, guid: 8f69b8c3fb3793047a79ba9302bc5ca3, type: 2}
  - m_RefCount: 1
    m_Data: {fileID: 11400000, guid: 573e92c08685a1b47a6217e5ebb16587, type: 2}
  - m_RefCount: 1
    m_Data: {fileID: 11400000, guid: 5ad67012093003946a1a92f9a8bcf2f5, type: 2}
  - m_RefCount: 1
    m_Data: {fileID: 11400000, guid: 48e04743b8525ad43829d47d3ccb7073, type: 2}
  - m_RefCount: 1
    m_Data: {fileID: 11400000, guid: 5c29e72f43dfd004eba8eb34f89daa11, type: 2}
  - m_RefCount: 1
    m_Data: {fileID: 11400000, guid: 2e467a290acb05745bd502782cf83f5b, type: 2}
  - m_RefCount: 1
    m_Data: {fileID: 11400000, guid: acfe33a6092d89445954d53c5d34348b, type: 2}
  - m_RefCount: 1
    m_Data: {fileID: 11400000, guid: 51e5640bb1a08c64a9d0bae62713ee24, type: 2}
  - m_RefCount: 1
    m_Data: {fileID: 11400000, guid: 556670d1a709ac84e9bcae4e386d65db, type: 2}
  - m_RefCount: 1
    m_Data: {fileID: 11400000, guid: 938bc8389e1cd114b92d0d5a48956a95, type: 2}
  - m_RefCount: 1
    m_Data: {fileID: 11400000, guid: 44f3c79b509427b4385478249c1d193f, type: 2}
  - m_RefCount: 1
    m_Data: {fileID: 11400000, guid: c1eaaa7ae3277a340ac0dd644d2ab908, type: 2}
  - m_RefCount: 1
    m_Data: {fileID: 11400000, guid: 7ae02ecaba976014a993794cbf902b5e, type: 2}
  - m_RefCount: 1
    m_Data: {fileID: 11400000, guid: eef7ac8a5eeea954f80c0301d5cc5a33, type: 2}
  - m_RefCount: 1
    m_Data: {fileID: 11400000, guid: efa73422aff6a8147bd8cd34bdb11296, type: 2}
  - m_RefCount: 1
    m_Data: {fileID: 11400000, guid: 18036001d5a9a784bb15562daeec84bf, type: 2}
  - m_RefCount: 1
    m_Data: {fileID: 11400000, guid: ef60be5bbcccd594f949e463205707d0, type: 2}
  - m_RefCount: 1
    m_Data: {fileID: 11400000, guid: e48a57b9e83263a41a5be14e9f8e77f3, type: 2}
  - m_RefCount: 1
    m_Data: {fileID: 11400000, guid: 74c7b46a47f5d264184609d66876002a, type: 2}
  - m_RefCount: 1
    m_Data: {fileID: 11400000, guid: c2e04e398ed78f94d93847c22863fe78, type: 2}
  - m_RefCount: 1
    m_Data: {fileID: 11400000, guid: 9932523e65a058e40a49a1deee005d44, type: 2}
  - m_RefCount: 1
    m_Data: {fileID: 11400000, guid: e8cb7a79c3bb73447b662b871cd7d58c, type: 2}
  - m_RefCount: 1
    m_Data: {fileID: 11400000, guid: 1af4ed7700c0b0046a6b75d6bae15c75, type: 2}
  - m_RefCount: 1
    m_Data: {fileID: 11400000, guid: ab45678dea553094ca012b0f6421cf55, type: 2}
  - m_RefCount: 1
    m_Data: {fileID: 11400000, guid: 8fb63030a196c8d4ba2c26a3565003cb, type: 2}
  - m_RefCount: 1
    m_Data: {fileID: 11400000, guid: a3a61f8767632bc4bbb686075b46fa56, type: 2}
  - m_RefCount: 1
    m_Data: {fileID: 11400000, guid: 994ee33b423966e4c846aaff380a1b6c, type: 2}
  - m_RefCount: 1
    m_Data: {fileID: 11400000, guid: 9817acb6f5ee9574791298678a0ea5a0, type: 2}
  - m_RefCount: 1
    m_Data: {fileID: 11400000, guid: 5840d0e907deb60479ca25977fa96699, type: 2}
  - m_RefCount: 1
    m_Data: {fileID: 11400000, guid: bbe3389627608584eb0c837533262abd, type: 2}
  - m_RefCount: 1
    m_Data: {fileID: 11400000, guid: f81d49bbdad0b9948a931139976687da, type: 2}
  - m_RefCount: 1
    m_Data: {fileID: 11400000, guid: d6c8de433b6e1a340ba8f955a0734950, type: 2}
  - m_RefCount: 1
    m_Data: {fileID: 11400000, guid: 74331ae7165305b4ab770b1d86929877, type: 2}
  - m_RefCount: 1
    m_Data: {fileID: 11400000, guid: 69fc589f2771cd744a9cc589dba6fddd, type: 2}
  - m_RefCount: 1
    m_Data: {fileID: 11400000, guid: 8d8b982dc26373442b8666c8d509ad59, type: 2}
  - m_RefCount: 1
    m_Data: {fileID: 11400000, guid: a9ba47c0672a65b418cd579432a5f39b, type: 2}
  - m_RefCount: 1
    m_Data: {fileID: 11400000, guid: 5d9f64027cbe6404bb85c8a2cc9c1da6, type: 2}
  - m_RefCount: 1
    m_Data: {fileID: 11400000, guid: 3f2b1b173a667804c8e50c7775028609, type: 2}
  - m_RefCount: 1
    m_Data: {fileID: 11400000, guid: 14dbaf7b06567a94b8fab928e1da73db, type: 2}
  - m_RefCount: 1
    m_Data: {fileID: 11400000, guid: 889b9ae6d60a3534c9a434b4813cb5d4, type: 2}
  - m_RefCount: 1
    m_Data: {fileID: 11400000, guid: 919ac7e265c9e1a44bfe7e58212ba3a8, type: 2}
  - m_RefCount: 1
    m_Data: {fileID: 11400000, guid: e6a314d5240da9f4096aeffebc37bdae, type: 2}
  - m_RefCount: 1
    m_Data: {fileID: 11400000, guid: ba9eecb1dc1879a47955c4ce903947f7, type: 2}
  - m_RefCount: 1
    m_Data: {fileID: 11400000, guid: 3c068a57ee8daa64d90166917b97eb9e, type: 2}
  - m_RefCount: 1
    m_Data: {fileID: 11400000, guid: 3401f25715db4c7409508fa40370fe82, type: 2}
  - m_RefCount: 1
    m_Data: {fileID: 11400000, guid: dc9dc8106b6756140a711a11f4457ef9, type: 2}
  - m_RefCount: 1
    m_Data: {fileID: 11400000, guid: 3652d7714ab6d2a468a2826f01ec86a9, type: 2}
  - m_RefCount: 1
    m_Data: {fileID: 11400000, guid: dbd4af78dce7bda4a92cdd7fa0a13197, type: 2}
  - m_RefCount: 1
    m_Data: {fileID: 11400000, guid: 5f2a14f7a737e0241a171287631b81e8, type: 2}
  - m_RefCount: 1
    m_Data: {fileID: 11400000, guid: 9495745745ca34d4dad59e77cc172088, type: 2}
  - m_RefCount: 1
    m_Data: {fileID: 11400000, guid: 8b8b3d223594f7a4487fd108635beacc, type: 2}
  - m_RefCount: 1
    m_Data: {fileID: 11400000, guid: 99997f0c97aa67942a928221d65b876b, type: 2}
  - m_RefCount: 1
    m_Data: {fileID: 11400000, guid: 6ca54c5ada489744da361753adb70fac, type: 2}
  - m_RefCount: 1
    m_Data: {fileID: 11400000, guid: 34778b591f1a5704a844939c4eb8d2c4, type: 2}
  - m_RefCount: 1
    m_Data: {fileID: 11400000, guid: 5131431605754cc468dcd362115a775e, type: 2}
  - m_RefCount: 1
    m_Data: {fileID: 11400000, guid: ba47e54a75a98ce4d96ed95d27a074a3, type: 2}
  - m_RefCount: 1
    m_Data: {fileID: 11400000, guid: 7e43a011486055c4796733479a96966d, type: 2}
  - m_RefCount: 1
    m_Data: {fileID: 11400000, guid: 01dd05640a1a99f429fbde31ef6815fd, type: 2}
  - m_RefCount: 1
    m_Data: {fileID: 11400000, guid: f0aabd7b4ddd5f5498ad2fcda08f26cb, type: 2}
  - m_RefCount: 1
    m_Data: {fileID: 11400000, guid: b4c882ff2d6caa842925089617444e2c, type: 2}
  - m_RefCount: 1
    m_Data: {fileID: 11400000, guid: 1a1d7054c42aa664b8023118a76c9096, type: 2}
  - m_RefCount: 1
    m_Data: {fileID: 11400000, guid: 987443508dca1034689b0635bd91f239, type: 2}
  - m_RefCount: 1
    m_Data: {fileID: 11400000, guid: 35508b10e541e594488f3e5bdcbd14a1, type: 2}
  m_TileSpriteArray:
  - m_RefCount: 1
    m_Data: {fileID: 1663422356, guid: cbb65757bb811af449d268037c6f5b49, type: 3}
  - m_RefCount: 1
    m_Data: {fileID: -854841194, guid: cbb65757bb811af449d268037c6f5b49, type: 3}
  - m_RefCount: 1
    m_Data: {fileID: 1988522560, guid: cbb65757bb811af449d268037c6f5b49, type: 3}
  - m_RefCount: 1
    m_Data: {fileID: 1293542035, guid: cbb65757bb811af449d268037c6f5b49, type: 3}
  - m_RefCount: 1
    m_Data: {fileID: -1163584799, guid: cbb65757bb811af449d268037c6f5b49, type: 3}
  - m_RefCount: 1
    m_Data: {fileID: -594925099, guid: cbb65757bb811af449d268037c6f5b49, type: 3}
  - m_RefCount: 1
    m_Data: {fileID: -691552097, guid: cbb65757bb811af449d268037c6f5b49, type: 3}
  - m_RefCount: 1
    m_Data: {fileID: -925746276, guid: cbb65757bb811af449d268037c6f5b49, type: 3}
  - m_RefCount: 1
    m_Data: {fileID: 58550192, guid: cbb65757bb811af449d268037c6f5b49, type: 3}
  - m_RefCount: 1
    m_Data: {fileID: -1887082461, guid: cbb65757bb811af449d268037c6f5b49, type: 3}
  - m_RefCount: 1
    m_Data: {fileID: -1523223456, guid: cbb65757bb811af449d268037c6f5b49, type: 3}
  - m_RefCount: 1
    m_Data: {fileID: -1631330732, guid: cbb65757bb811af449d268037c6f5b49, type: 3}
  - m_RefCount: 1
    m_Data: {fileID: -997683629, guid: cbb65757bb811af449d268037c6f5b49, type: 3}
  - m_RefCount: 1
    m_Data: {fileID: 2107333220, guid: cbb65757bb811af449d268037c6f5b49, type: 3}
  - m_RefCount: 1
    m_Data: {fileID: 202172395, guid: cbb65757bb811af449d268037c6f5b49, type: 3}
  - m_RefCount: 1
    m_Data: {fileID: -122965300, guid: cbb65757bb811af449d268037c6f5b49, type: 3}
  - m_RefCount: 1
    m_Data: {fileID: -120530280, guid: cbb65757bb811af449d268037c6f5b49, type: 3}
  - m_RefCount: 1
    m_Data: {fileID: 1898462301, guid: cbb65757bb811af449d268037c6f5b49, type: 3}
  - m_RefCount: 1
    m_Data: {fileID: 740712666, guid: cbb65757bb811af449d268037c6f5b49, type: 3}
  - m_RefCount: 1
    m_Data: {fileID: -1339566463, guid: cbb65757bb811af449d268037c6f5b49, type: 3}
  - m_RefCount: 1
    m_Data: {fileID: 695783933, guid: cbb65757bb811af449d268037c6f5b49, type: 3}
  - m_RefCount: 1
    m_Data: {fileID: -735044725, guid: cbb65757bb811af449d268037c6f5b49, type: 3}
  - m_RefCount: 1
    m_Data: {fileID: 515911876, guid: cbb65757bb811af449d268037c6f5b49, type: 3}
  - m_RefCount: 1
    m_Data: {fileID: 468371378, guid: cbb65757bb811af449d268037c6f5b49, type: 3}
  - m_RefCount: 1
    m_Data: {fileID: -2042947462, guid: cbb65757bb811af449d268037c6f5b49, type: 3}
  - m_RefCount: 1
    m_Data: {fileID: 72250410, guid: cbb65757bb811af449d268037c6f5b49, type: 3}
  - m_RefCount: 1
    m_Data: {fileID: -768578469, guid: cbb65757bb811af449d268037c6f5b49, type: 3}
  - m_RefCount: 1
    m_Data: {fileID: 302813430, guid: cbb65757bb811af449d268037c6f5b49, type: 3}
  - m_RefCount: 1
    m_Data: {fileID: 742509350, guid: cbb65757bb811af449d268037c6f5b49, type: 3}
  - m_RefCount: 1
    m_Data: {fileID: -260317657, guid: cbb65757bb811af449d268037c6f5b49, type: 3}
  - m_RefCount: 1
    m_Data: {fileID: -2005136507, guid: cbb65757bb811af449d268037c6f5b49, type: 3}
  - m_RefCount: 1
    m_Data: {fileID: -348295547, guid: cbb65757bb811af449d268037c6f5b49, type: 3}
  - m_RefCount: 1
    m_Data: {fileID: -2098017164, guid: cbb65757bb811af449d268037c6f5b49, type: 3}
  - m_RefCount: 1
    m_Data: {fileID: 663088954, guid: cbb65757bb811af449d268037c6f5b49, type: 3}
  - m_RefCount: 1
    m_Data: {fileID: -853062711, guid: cbb65757bb811af449d268037c6f5b49, type: 3}
  - m_RefCount: 1
    m_Data: {fileID: 1744220322, guid: cbb65757bb811af449d268037c6f5b49, type: 3}
  - m_RefCount: 1
    m_Data: {fileID: -1185273673, guid: cbb65757bb811af449d268037c6f5b49, type: 3}
  - m_RefCount: 1
    m_Data: {fileID: 2078542537, guid: cbb65757bb811af449d268037c6f5b49, type: 3}
  - m_RefCount: 1
    m_Data: {fileID: -1938015257, guid: cbb65757bb811af449d268037c6f5b49, type: 3}
  - m_RefCount: 1
    m_Data: {fileID: -2066994730, guid: cbb65757bb811af449d268037c6f5b49, type: 3}
  - m_RefCount: 1
    m_Data: {fileID: -208675128, guid: cbb65757bb811af449d268037c6f5b49, type: 3}
  - m_RefCount: 1
    m_Data: {fileID: -53071450, guid: cbb65757bb811af449d268037c6f5b49, type: 3}
  - m_RefCount: 1
    m_Data: {fileID: -1557678090, guid: cbb65757bb811af449d268037c6f5b49, type: 3}
  - m_RefCount: 1
    m_Data: {fileID: 870688209, guid: cbb65757bb811af449d268037c6f5b49, type: 3}
  - m_RefCount: 1
    m_Data: {fileID: -1688260133, guid: cbb65757bb811af449d268037c6f5b49, type: 3}
  - m_RefCount: 1
    m_Data: {fileID: -1466895068, guid: cbb65757bb811af449d268037c6f5b49, type: 3}
  - m_RefCount: 1
    m_Data: {fileID: -876911316, guid: cbb65757bb811af449d268037c6f5b49, type: 3}
  - m_RefCount: 1
    m_Data: {fileID: 1022511252, guid: cbb65757bb811af449d268037c6f5b49, type: 3}
  - m_RefCount: 1
    m_Data: {fileID: -1892526292, guid: cbb65757bb811af449d268037c6f5b49, type: 3}
  - m_RefCount: 1
    m_Data: {fileID: 1956384598, guid: cbb65757bb811af449d268037c6f5b49, type: 3}
  - m_RefCount: 1
    m_Data: {fileID: -1511635335, guid: cbb65757bb811af449d268037c6f5b49, type: 3}
  - m_RefCount: 1
    m_Data: {fileID: -1490333464, guid: cbb65757bb811af449d268037c6f5b49, type: 3}
  - m_RefCount: 1
    m_Data: {fileID: 158009981, guid: cbb65757bb811af449d268037c6f5b49, type: 3}
  - m_RefCount: 1
    m_Data: {fileID: -1317575123, guid: cbb65757bb811af449d268037c6f5b49, type: 3}
  - m_RefCount: 1
    m_Data: {fileID: -1264482177, guid: cbb65757bb811af449d268037c6f5b49, type: 3}
  - m_RefCount: 1
    m_Data: {fileID: -2086314209, guid: cbb65757bb811af449d268037c6f5b49, type: 3}
  - m_RefCount: 1
    m_Data: {fileID: 1303054764, guid: cbb65757bb811af449d268037c6f5b49, type: 3}
  - m_RefCount: 1
    m_Data: {fileID: -1533104525, guid: cbb65757bb811af449d268037c6f5b49, type: 3}
  - m_RefCount: 1
    m_Data: {fileID: -2135748878, guid: cbb65757bb811af449d268037c6f5b49, type: 3}
  - m_RefCount: 1
    m_Data: {fileID: -805075313, guid: cbb65757bb811af449d268037c6f5b49, type: 3}
  - m_RefCount: 1
    m_Data: {fileID: 976855669, guid: cbb65757bb811af449d268037c6f5b49, type: 3}
  - m_RefCount: 1
    m_Data: {fileID: 1854221141, guid: cbb65757bb811af449d268037c6f5b49, type: 3}
  - m_RefCount: 1
    m_Data: {fileID: -238744599, guid: cbb65757bb811af449d268037c6f5b49, type: 3}
  - m_RefCount: 1
    m_Data: {fileID: -2015191405, guid: cbb65757bb811af449d268037c6f5b49, type: 3}
  - m_RefCount: 1
    m_Data: {fileID: 582147532, guid: cbb65757bb811af449d268037c6f5b49, type: 3}
  - m_RefCount: 1
    m_Data: {fileID: 1438807215, guid: cbb65757bb811af449d268037c6f5b49, type: 3}
  - m_RefCount: 1
    m_Data: {fileID: 536717426, guid: cbb65757bb811af449d268037c6f5b49, type: 3}
  - m_RefCount: 1
    m_Data: {fileID: 1226723791, guid: cbb65757bb811af449d268037c6f5b49, type: 3}
  - m_RefCount: 1
    m_Data: {fileID: -1389052172, guid: cbb65757bb811af449d268037c6f5b49, type: 3}
  - m_RefCount: 1
    m_Data: {fileID: -1894338350, guid: cbb65757bb811af449d268037c6f5b49, type: 3}
  - m_RefCount: 1
    m_Data: {fileID: 1022089366, guid: cbb65757bb811af449d268037c6f5b49, type: 3}
  - m_RefCount: 1
    m_Data: {fileID: -1499719747, guid: cbb65757bb811af449d268037c6f5b49, type: 3}
  - m_RefCount: 1
    m_Data: {fileID: 551735087, guid: cbb65757bb811af449d268037c6f5b49, type: 3}
  - m_RefCount: 1
    m_Data: {fileID: 41333636, guid: cbb65757bb811af449d268037c6f5b49, type: 3}
  - m_RefCount: 1
    m_Data: {fileID: 2098584022, guid: cbb65757bb811af449d268037c6f5b49, type: 3}
  - m_RefCount: 1
    m_Data: {fileID: 698542947, guid: cbb65757bb811af449d268037c6f5b49, type: 3}
  - m_RefCount: 1
    m_Data: {fileID: 1341483367, guid: cbb65757bb811af449d268037c6f5b49, type: 3}
  - m_RefCount: 1
    m_Data: {fileID: 1529571816, guid: cbb65757bb811af449d268037c6f5b49, type: 3}
  - m_RefCount: 1
    m_Data: {fileID: 1082137508, guid: cbb65757bb811af449d268037c6f5b49, type: 3}
  - m_RefCount: 1
    m_Data: {fileID: -1236436458, guid: cbb65757bb811af449d268037c6f5b49, type: 3}
  - m_RefCount: 1
    m_Data: {fileID: 1491337600, guid: cbb65757bb811af449d268037c6f5b49, type: 3}
  - m_RefCount: 1
    m_Data: {fileID: 43425465, guid: cbb65757bb811af449d268037c6f5b49, type: 3}
  - m_RefCount: 1
    m_Data: {fileID: 686187428, guid: cbb65757bb811af449d268037c6f5b49, type: 3}
  - m_RefCount: 1
    m_Data: {fileID: -1762586691, guid: cbb65757bb811af449d268037c6f5b49, type: 3}
  - m_RefCount: 1
    m_Data: {fileID: 1144547977, guid: cbb65757bb811af449d268037c6f5b49, type: 3}
  - m_RefCount: 1
    m_Data: {fileID: 914783442, guid: cbb65757bb811af449d268037c6f5b49, type: 3}
  - m_RefCount: 1
    m_Data: {fileID: 794352978, guid: cbb65757bb811af449d268037c6f5b49, type: 3}
  - m_RefCount: 1
    m_Data: {fileID: 160835120, guid: cbb65757bb811af449d268037c6f5b49, type: 3}
  - m_RefCount: 1
    m_Data: {fileID: 689963423, guid: cbb65757bb811af449d268037c6f5b49, type: 3}
  - m_RefCount: 1
    m_Data: {fileID: -2071268664, guid: cbb65757bb811af449d268037c6f5b49, type: 3}
  - m_RefCount: 1
    m_Data: {fileID: 1905762088, guid: cbb65757bb811af449d268037c6f5b49, type: 3}
  m_TileMatrixArray:
  - m_RefCount: 91
    m_Data:
      e00: 1
      e01: 0
      e02: 0
      e03: 0
      e10: 0
      e11: 1
      e12: 0
      e13: 0
      e20: 0
      e21: 0
      e22: 1
      e23: 0
      e30: 0
      e31: 0
      e32: 0
      e33: 1
  m_TileColorArray:
  - m_RefCount: 91
    m_Data: {r: 1, g: 1, b: 1, a: 1}
  m_TileObjectToInstantiateArray: []
  m_AnimationFrameRate: 1
  m_Color: {r: 1, g: 1, b: 1, a: 1}
  m_Origin: {x: -1, y: -7, z: 0}
  m_Size: {x: 13, y: 8, z: 1}
  m_TileAnchor: {x: 0.5, y: 0.5, z: 0}
  m_TileOrientation: 0
  m_TileOrientationMatrix:
    e00: 1
    e01: 0
    e02: 0
    e03: 0
    e10: 0
    e11: 1
    e12: 0
    e13: 0
    e20: 0
    e21: 0
    e22: 1
    e23: 0
    e30: 0
    e31: 0
    e32: 0
    e33: 1
--- !u!483693784 &5083458508904992140
TilemapRenderer:
  m_ObjectHideFlags: 0
  m_CorrespondingSourceObject: {fileID: 0}
  m_PrefabInstance: {fileID: 0}
  m_PrefabAsset: {fileID: 0}
  m_GameObject: {fileID: 1505237212886384835}
  m_Enabled: 1
  m_CastShadows: 0
  m_ReceiveShadows: 0
  m_DynamicOccludee: 0
  m_StaticShadowCaster: 0
  m_MotionVectors: 1
  m_LightProbeUsage: 0
  m_ReflectionProbeUsage: 0
  m_RayTracingMode: 0
  m_RayTraceProcedural: 0
  m_RenderingLayerMask: 1
  m_RendererPriority: 0
  m_Materials:
  - {fileID: 10754, guid: 0000000000000000f000000000000000, type: 0}
  m_StaticBatchInfo:
    firstSubMesh: 0
    subMeshCount: 0
  m_StaticBatchRoot: {fileID: 0}
  m_ProbeAnchor: {fileID: 0}
  m_LightProbeVolumeOverride: {fileID: 0}
  m_ScaleInLightmap: 1
  m_ReceiveGI: 1
  m_PreserveUVs: 0
  m_IgnoreNormalsForChartDetection: 0
  m_ImportantGI: 0
  m_StitchLightmapSeams: 1
  m_SelectedEditorRenderState: 0
  m_MinimumChartSize: 4
  m_AutoUVMaxDistance: 0.5
  m_AutoUVMaxAngle: 89
  m_LightmapParameters: {fileID: 0}
  m_SortingLayerID: 0
  m_SortingLayer: 0
  m_SortingOrder: 0
  m_ChunkSize: {x: 32, y: 32, z: 32}
  m_ChunkCullingBounds: {x: 0, y: 0, z: 0}
  m_MaxChunkCount: 16
  m_MaxFrameAge: 16
  m_SortOrder: 0
  m_Mode: 0
  m_DetectChunkCullingBounds: 0
  m_MaskInteraction: 0
--- !u!1 &8065210436938559791
GameObject:
  m_ObjectHideFlags: 0
  m_CorrespondingSourceObject: {fileID: 0}
  m_PrefabInstance: {fileID: 0}
  m_PrefabAsset: {fileID: 0}
  serializedVersion: 6
  m_Component:
  - component: {fileID: 8466038663716680296}
  - component: {fileID: 4717218083084343890}
  m_Layer: 0
  m_Name: VanHornMatthias_Restaurant_V04
  m_TagString: Untagged
  m_Icon: {fileID: 0}
  m_NavMeshLayer: 0
  m_StaticEditorFlags: 0
  m_IsActive: 1
--- !u!4 &8466038663716680296
Transform:
  m_ObjectHideFlags: 0
  m_CorrespondingSourceObject: {fileID: 0}
  m_PrefabInstance: {fileID: 0}
  m_PrefabAsset: {fileID: 0}
  m_GameObject: {fileID: 8065210436938559791}
  serializedVersion: 2
  m_LocalRotation: {x: 0, y: 0, z: 0, w: 1}
  m_LocalPosition: {x: 0, y: 0, z: 0}
  m_LocalScale: {x: 1, y: 1, z: 1}
  m_ConstrainProportionsScale: 0
  m_Children:
  - {fileID: 6209593330773942433}
  m_Father: {fileID: 0}
  m_LocalEulerAnglesHint: {x: 0, y: 0, z: 0}
--- !u!156049354 &4717218083084343890
Grid:
  m_ObjectHideFlags: 0
  m_CorrespondingSourceObject: {fileID: 0}
  m_PrefabInstance: {fileID: 0}
  m_PrefabAsset: {fileID: 0}
  m_GameObject: {fileID: 8065210436938559791}
  m_Enabled: 1
  m_CellSize: {x: 1, y: 1, z: 0}
  m_CellGap: {x: 0, y: 0, z: 0}
  m_CellLayout: 0
  m_CellSwizzle: 0
--- !u!114 &4240196658608112494
MonoBehaviour:
  m_ObjectHideFlags: 0
  m_CorrespondingSourceObject: {fileID: 0}
  m_PrefabInstance: {fileID: 0}
  m_PrefabAsset: {fileID: 0}
  m_GameObject: {fileID: 0}
  m_Enabled: 1
  m_EditorHideFlags: 0
  m_Script: {fileID: 12395, guid: 0000000000000000e000000000000000, type: 0}
  m_Name: Palette Settings
  m_EditorClassIdentifier: 
  cellSizing: 0
  m_TransparencySortMode: 0
  m_TransparencySortAxis: {x: 0, y: 0, z: 1}
