%YAML 1.1
%TAG !u! tag:unity3d.com,2011:
--- !u!114 &11400000
MonoBehaviour:
  m_ObjectHideFlags: 0
  m_CorrespondingSourceObject: {fileID: 0}
  m_PrefabInstance: {fileID: 0}
  m_PrefabAsset: {fileID: 0}
  m_GameObject: {fileID: 0}
  m_Enabled: 1
  m_EditorHideFlags: 0
  m_Script: {fileID: 11500000, guid: 91b71bf2da53c504fa62e83ab8871e68, type: 3}
  m_Name: Intro 2
  m_EditorClassIdentifier: 
  text: GOOD. WHEN A CUSTOMER COMES IN, THEY WILL SEAT THEMSELVES.
  charSound: {fileID: 8300000, guid: 46c21a8363d3cd24ea76b558901cbdd7, type: 3}
  characterHead: {fileID: 2800000, guid: ffe6282b04b53504c988b680df185249, type: 3}
  acc: {fileID: 0}
  color: {r: 1, g: 1, b: 1, a: 1}
  speed: 0.05
