%YAML 1.1
%TAG !u! tag:unity3d.com,2011:
--- !u!114 &11400000
MonoBehaviour:
  m_ObjectHideFlags: 0
  m_CorrespondingSourceObject: {fileID: 0}
  m_PrefabInstance: {fileID: 0}
  m_PrefabAsset: {fileID: 0}
  m_GameObject: {fileID: 0}
  m_Enabled: 1
  m_EditorHideFlags: 0
  m_Script: {fileID: 11500000, guid: 91b71bf2da53c504fa62e83ab8871e68, type: 3}
  m_Name: Wait 0
  m_EditorClassIdentifier: 
  text: Um, here's the order.
  charSound: {fileID: 8300000, guid: ccec935ea0821964e864a223dcaa3aec, type: 3}
  characterHead: {fileID: 2800000, guid: 7d61d2ebe99b4a04bb04fb0f4f568f1f, type: 3}
  acc: {fileID: 0}
  color: {r: 1, g: 1, b: 1, a: 1}
  speed: 0.05
